<?xml version="1.0" encoding="UTF-8" standalone="no"?>
<svg
   xmlns:dc="http://purl.org/dc/elements/1.1/"
   xmlns:cc="http://creativecommons.org/ns#"
   xmlns:rdf="http://www.w3.org/1999/02/22-rdf-syntax-ns#"
   xmlns:svg="http://www.w3.org/2000/svg"
   xmlns="http://www.w3.org/2000/svg"
   xmlns:xlink="http://www.w3.org/1999/xlink"
   xmlns:sodipodi="http://sodipodi.sourceforge.net/DTD/sodipodi-0.dtd"
   xmlns:inkscape="http://www.inkscape.org/namespaces/inkscape"
   width="43.391666mm"
   height="83.07917mm"
   viewBox="0 0 43.391666 83.07917"
   version="1.1"
   id="svg165"
   inkscape:version="1.0.1 (3bc2e813f5, 2020-09-07)"
   sodipodi:docname="asitus_setup_image.svg"
   inkscape:export-filename="D:\Work\AnalysisSitus\setup\imgs\setup_image.png"
   inkscape:export-xdpi="96"
   inkscape:export-ydpi="96">
  <defs
     id="defs159">
    <linearGradient
       inkscape:collect="always"
       xlink:href="#linearGradient3905"
       id="linearGradient3911"
       x1="365.07465"
       y1="446.62564"
       x2="439.97919"
       y2="594.41095"
       gradientUnits="userSpaceOnUse"
       gradientTransform="matrix(0.26458333,0,0,0.26458333,0.18329,5.41712)" />
    <linearGradient
       id="linearGradient3905">
      <stop
         style="stop-color:#282828;stop-opacity:1;"
         offset="0"
         id="stop3907" />
      <stop
         style="stop-color:#363636;stop-opacity:1;"
         offset="1"
         id="stop3909" />
    </linearGradient>
  </defs>
  <sodipodi:namedview
     id="base"
     pagecolor="#ffffff"
     bordercolor="#666666"
     borderopacity="1.0"
     inkscape:pageopacity="0.0"
     inkscape:pageshadow="2"
     inkscape:zoom="1.4"
     inkscape:cx="116.81512"
     inkscape:cy="199.55695"
     inkscape:document-units="mm"
     inkscape:current-layer="layer1"
     inkscape:document-rotation="0"
     showgrid="false"
     inkscape:window-width="1267"
     inkscape:window-height="967"
     inkscape:window-x="167"
     inkscape:window-y="195"
     inkscape:window-maximized="0" />
  <metadata
     id="metadata162">
    <rdf:RDF>
      <cc:Work
         rdf:about="">
        <dc:format>image/svg+xml</dc:format>
        <dc:type
           rdf:resource="http://purl.org/dc/dcmitype/StillImage" />
        <dc:title></dc:title>
      </cc:Work>
    </rdf:RDF>
  </metadata>
  <g
     inkscape:label="Layer 1"
     inkscape:groupmode="layer"
     id="layer1"
     transform="translate(-75.822021,-80.924698)">
    <rect
       style="fill:url(#linearGradient3911);fill-opacity:1;stroke:none;stroke-width:0.264583"
       id="rect2985"
       width="43.391666"
       height="83.07917"
       x="75.822021"
       y="80.924698" />
    <g
       id="g3897"
       transform="matrix(0.26458333,0,0,0.26458333,0.55746,9.9642229)">
      <path
         inkscape:connector-curvature="0"
         id="path3845"
         d="m 330.25,399.36218 c 0,0 14,-6.75 11.25,1 -2.75,7.75 -15,30.5 -15,30.5 l 20.75,-17.75 28,-33 2.25,-14 c 0,0 -26,1.75 -27.25,2.25 -1.25,0.5 -20,31 -20,31 z"
         style="fill:#50afff;fill-opacity:1;stroke:none" />
      <path
         sodipodi:nodetypes="ccccccccc"
         inkscape:connector-curvature="0"
         id="path2985"
         d="M 419.55595,314.93799 H 355.29603 V 345.2629 H 327.8592 v 57.40072 l 26.35379,-32.12996 h 22.74369 v -18.41155 z"
         style="fill:#008aff;fill-opacity:1;stroke:none" />
      <path
         inkscape:connector-curvature="0"
         id="path3890"
         d="m 358,322.36218 27.5,21.75 30.75,-26.75 -59,-1 z"
         style="fill:#58b3ff;fill-opacity:1;stroke:none;stroke-width:1px;stroke-linecap:butt;stroke-linejoin:miter;stroke-opacity:1" />
      <path
         sodipodi:nodetypes="ccccccccc"
         inkscape:connector-curvature="0"
         id="path2985-1"
         d="m 377.31769,371.07517 v -18.41155 l 42.59928,-37.18411 h -64.25993 v 30.32491 h -27.43682 v 57.40072 m -6.13719,33.57401 c 0,0 55.64091,-49.42116 55.23466,-65.95241"
         style="fill:none;stroke:#ffffff;stroke-width:5;stroke-linecap:round;stroke-miterlimit:4;stroke-dasharray:none;stroke-opacity:1" />
      <path
         sodipodi:nodetypes="cc"
         inkscape:connector-curvature="0"
         id="path2985-1-7"
         d="m 339.97022,347.28727 v 29.65072"
         style="fill:none;stroke:#ffffff;stroke-width:5;stroke-linecap:round;stroke-miterlimit:4;stroke-dasharray:none;stroke-opacity:1" />
      <path
         sodipodi:nodetypes="cc"
         inkscape:connector-curvature="0"
         id="path2985-1-7-4"
         d="m 355.65057,348.36763 v 16.48086"
         style="fill:none;stroke:#ffffff;stroke-width:5;stroke-linecap:round;stroke-miterlimit:4;stroke-dasharray:none;stroke-opacity:1" />
    </g>
    <flowRoot
       xml:space="preserve"
       id="flowRoot3913"
       style="font-style:normal;font-weight:normal;line-height:0.01%;font-family:sans-serif;letter-spacing:0px;word-spacing:0px;fill:#ffffff;fill-opacity:0.661376;stroke:none"
       transform="matrix(0.26458333,0,0,0.26458333,-5.80355,5.8482729)"><flowRegion
         id="flowRegion3915"
         style="font-family:sans-serif"><rect
           id="rect3917"
           width="173.94827"
           height="74.246216"
           x="305.47012"
           y="467.58487"
           style="fill:#ffffff;fill-opacity:0.66137564" /></flowRegion><flowPara
         id="flowPara3919"
         style="font-style:normal;font-variant:normal;font-weight:bold;font-stretch:normal;font-size:28px;line-height:1.25;font-family:'Segoe UI';-inkscape-font-specification:'Segoe UI Bold';text-align:center;text-anchor:middle;fill:#ffffff;fill-opacity:0.661376">Analysis Situs</flowPara></flowRoot>
  </g>
</svg>
